dump.vcd
$date
	Sat Jun 14 10:12:59 2025
$end
$version
	Icarus Verilog
$end
$timescale
	1ps
$end
$scope module Light_FSM_tb $end
$var wire 3 ! light_cnt_init [2:0] $end
$var wire 3 " light [2:0] $end
$var parameter 32 # LIGHT_STATE_WIDTH $end
$var reg 1 $ clk $end
$var reg 1 % en $end
$var reg 1 & light_cnt_last $end
$var reg 1 ' rst_n $end
$var reg 1 ( second_cnt_pre_last $end
$scope module uut $end
$var wire 1 $ clk $end
$var wire 1 % en $end
$var wire 1 ) last_cnt $end
$var wire 3 * light [2:0] $end
$var wire 3 + light_cnt_init [2:0] $end
$var wire 1 & light_cnt_last $end
$var wire 1 ' rst_n $end
$var wire 1 ( second_cnt_pre_last $end
$var parameter 2 , GREEN $end
$var parameter 2 - IDLE $end
$var parameter 32 . LIGHT_STATE_WIDTH $end
$var parameter 2 / RED $end
$var parameter 2 0 YELLOW $end
$var parameter 32 1 pGREEN_IDX $end
$var parameter 32 2 pRED_IDX $end
$var parameter 32 3 pYELLOW_IDX $end
$var reg 2 4 light_current_state [1:0] $end
$var reg 2 5 light_next_state [1:0] $end
$var reg 3 6 signal_current_init [2:0] $end
$var reg 3 7 signal_current_light [2:0] $end
$var reg 3 8 signal_next_init [2:0] $end
$var reg 3 9 signal_next_light [2:0] $end
$upscope $end
$scope task display_light_state $end
$upscope $end
$upscope $end
$enddefinitions $end
$comment Show the parameter values. $end
$dumpall
b1 3
b10 2
b0 1
b10 0
b11 /
b11 .
b0 -
b1 ,
b11 #
$end
#0
$dumpvars
b0 9
b0 8
b0 7
b0 6
b0 5
b0 4
b0 +
b0 *
0)
0(
0'
0&
0%
0$
b0 "
b0 !
$end
#5000
1$
#10000
0$
1'
#15000
1$
#20000
0$
0'
#25000
1$
#30000
b1 8
b1 9
b1 5
0$
1%
1'
#35000
b1 8
b1 9
b1 5
b1 !
b1 +
b1 6
b1 "
b1 *
b1 7
b1 4
1$
#40000
0$
#45000
1$
#50000
b10 8
b10 9
b10 5
1)
0$
1(
1&
#55000
b100 8
b100 9
b11 5
b10 !
b10 +
b10 6
b10 "
b10 *
b10 7
b10 4
1$
#60000
b10 8
b10 9
b10 5
0)
0$
0(
0&
#65000
1$
#70000
0$
#75000
1$
#80000
0$
#85000
1$
#90000
b100 8
b100 9
b11 5
1)
0$
1(
1&
#95000
b1 8
b1 9
b1 5
b100 !
b100 +
b100 6
b100 "
b100 *
b100 7
b11 4
1$
#100000
b100 8
b100 9
b11 5
0)
0$
0(
0&
#105000
1$
#110000
0$
#115000
1$
#120000
0$
#125000
1$
#130000
b1 8
b1 9
b1 5
1)
0$
1(
1&
#135000
b10 8
b10 9
b10 5
b1 !
b1 +
b1 6
b1 "
b1 *
b1 7
b1 4
1$
#140000
b1 8
b1 9
b1 5
0)
0$
0(
0&
#145000
1$
#150000
0$
#155000
1$
#160000
0$
#165000
1$
#170000
b10 8
b10 9
b10 5
1)
0$
1(
1&
#175000
b100 8
b100 9
b11 5
b10 !
b10 +
b10 6
b10 "
b10 *
b10 7
b10 4
1$
#180000
b10 8
b10 9
b10 5
0)
0$
0(
0&
